event_studies
…
apple_rets <-
  dsf |>
  inner_join(dsi, by = "date") |>
  mutate(ret_mkt = ret - vwretd) |>
  select(permno, date, ret, ret_mkt, vol) |>
  filter(permno == apple_permno,
         date >= "2005-01-01") |>
  collect()

apple_rets

## # A tibble: 4,781 x 5
##    permno date             ret   ret_mkt      vol
##     <int> <date>         <dbl>     <dbl>    <dbl>
##  1  14593 2005-01-03 -0.0172   -0.00720  12442426
##  2  14593 2005-01-04  0.0103    0.0231   19650028
##  3  14593 2005-01-05  0.00876   0.0149   12196008
##  4  14593 2005-01-06  0.000775 -0.00271  12610986
##  5  14593 2005-01-07  0.0728    0.0750   39944563
##  6  14593 2005-01-10 -0.00419  -0.0084   31079383
##  7  14593 2005-01-11 -0.0638   -0.0575   46753220
##  8  14593 2005-01-12  0.0139    0.00973  36727541
##  9  14593 2005-01-13  0.0663    0.0732   56719585
## 10  14593 2005-01-14  0.00573  -0.000509 27466847
## # i 4,771 more rows
…
apple_reg_data <-
  apple_rets |>
  left_join(apple_event_dates, 
            join_by(permno, date >= start_date, date <= end_date)) |>
  mutate(is_event = !is.na(start_date)) |>
  select(permno, date, ret, ret_mkt, vol, is_event)

apple_rets |>
  left_join(apple_event_dates, 
            join_by(permno, date >= start_date, date <= end_date)) |>
  mutate(is_event = !is.na(start_date))

## # A tibble: 4,781 x 10
##    permno date             ret   ret_mkt      vol event_date end_event_date
##     <int> <date>         <dbl>     <dbl>    <dbl> <date>     <date>        
##  1  14593 2005-01-03 -0.0172   -0.00720  12442426 NA         NA            
##  2  14593 2005-01-04  0.0103    0.0231   19650028 NA         NA            
##  3  14593 2005-01-05  0.00876   0.0149   12196008 NA         NA            
##  4  14593 2005-01-06  0.000775 -0.00271  12610986 NA         NA            
##  5  14593 2005-01-07  0.0728    0.0750   39944563 NA         NA            
##  6  14593 2005-01-10 -0.00419  -0.0084   31079383 NA         NA            
##  7  14593 2005-01-11 -0.0638   -0.0575   46753220 NA         NA            
##  8  14593 2005-01-12  0.0139    0.00973  36727541 NA         NA            
##  9  14593 2005-01-13  0.0663    0.0732   56719585 NA         NA            
## 10  14593 2005-01-14  0.00573  -0.000509 27466847 NA         NA            
## # i 4,771 more rows
## # i 3 more variables: start_date <date>, end_date <date>, is_event <lgl>

apple_reg_data

## # A tibble: 4,781 x 6
##    permno date             ret   ret_mkt      vol is_event
##     <int> <date>         <dbl>     <dbl>    <dbl> <lgl>   
##  1  14593 2005-01-03 -0.0172   -0.00720  12442426 FALSE   
##  2  14593 2005-01-04  0.0103    0.0231   19650028 FALSE   
##  3  14593 2005-01-05  0.00876   0.0149   12196008 FALSE   
##  4  14593 2005-01-06  0.000775 -0.00271  12610986 FALSE   
##  5  14593 2005-01-07  0.0728    0.0750   39944563 FALSE   
##  6  14593 2005-01-10 -0.00419  -0.0084   31079383 FALSE   
##  7  14593 2005-01-11 -0.0638   -0.0575   46753220 FALSE   
##  8  14593 2005-01-12  0.0139    0.00973  36727541 FALSE   
##  9  14593 2005-01-13  0.0663    0.0732   56719585 FALSE   
## 10  14593 2005-01-14  0.00573  -0.000509 27466847 FALSE   
## # i 4,771 more rows

cumprod()

apple_reg_data |>  
  arrange(date) |>
  mutate(cumret = cumprod(1 + coalesce(ret, 0)),
         switch = coalesce(is_event != lead(is_event), FALSE))

## # A tibble: 4,781 x 8
##    permno date             ret   ret_mkt      vol is_event cumret switch
##     <int> <date>         <dbl>     <dbl>    <dbl> <lgl>     <dbl> <lgl> 
##  1  14593 2005-01-03 -0.0172   -0.00720  12442426 FALSE     0.983 FALSE 
##  2  14593 2005-01-04  0.0103    0.0231   19650028 FALSE     0.993 FALSE 
##  3  14593 2005-01-05  0.00876   0.0149   12196008 FALSE     1.00  FALSE 
##  4  14593 2005-01-06  0.000775 -0.00271  12610986 FALSE     1.00  FALSE 
##  5  14593 2005-01-07  0.0728    0.0750   39944563 FALSE     1.08  FALSE 
##  6  14593 2005-01-10 -0.00419  -0.0084   31079383 FALSE     1.07  FALSE 
##  7  14593 2005-01-11 -0.0638   -0.0575   46753220 FALSE     1.00  FALSE 
##  8  14593 2005-01-12  0.0139    0.00973  36727541 FALSE     1.02  FALSE 
##  9  14593 2005-01-13  0.0663    0.0732   56719585 FALSE     1.08  FALSE 
## 10  14593 2005-01-14  0.00573  -0.000509 27466847 FALSE     1.09  FALSE 
## # i 4,771 more rows
…
farrget_event_cum_rets

rets <-
  apple_events |>
  mutate(permno = apple_permno) |> 
  get_event_cum_rets(db,
                     win_start = -1, win_end = +1,
                     end_event_date = "end_event_date")

rets

## # A tibble: 47 x 6
##    permno event_date end_event_date ret_raw  ret_mkt   ret_sz
##     <int> <date>     <date>           <dbl>    <dbl>    <dbl>
##  1  14593 2012-10-23 2012-10-23      0.0115  0.0268   0.0281 
##  2  14593 2019-06-03 2019-06-07      0.0801  0.0468   0.0457 
##  3  14593 2011-06-06 2011-06-10     -0.0563 -0.0217  -0.0247 
##  4  14593 2018-06-04 2018-06-08      0.0233 -0.00396 -0.00478
##  5  14593 2006-02-28 2006-02-28     -0.0330 -0.0359  -0.0354 
##  6  14593 2014-06-02 2014-06-06      0.0323  0.0144   0.0164 
##  7  14593 2012-03-07 2012-03-07      0.0166  0.0154   0.0158 
##  8  14593 2016-09-07 2016-09-07     -0.0205 -0.0226  -0.0214 
##  9  14593 2013-09-10 2013-09-10     -0.0612 -0.0822  -0.0819 
## 10  14593 2017-06-05 2017-06-09     -0.0507 -0.0511  -0.0499 
## # i 37 more rows
…
13.2.2 

13.2.2.1

apple_reg_data |>  
  arrange(date) |>
  mutate(cumret = exp(cumsum(log(1 + coalesce(ret,0)))),
         switch = coalesce(is_event != lead(is_event), FALSE))

## # A tibble: 4,781 x 8
##    permno date             ret   ret_mkt      vol is_event cumret switch
##     <int> <date>         <dbl>     <dbl>    <dbl> <lgl>     <dbl> <lgl> 
##  1  14593 2005-01-03 -0.0172   -0.00720  12442426 FALSE     0.983 FALSE 
##  2  14593 2005-01-04  0.0103    0.0231   19650028 FALSE     0.993 FALSE 
##  3  14593 2005-01-05  0.00876   0.0149   12196008 FALSE     1.00  FALSE 
##  4  14593 2005-01-06  0.000775 -0.00271  12610986 FALSE     1.00  FALSE 
##  5  14593 2005-01-07  0.0728    0.0750   39944563 FALSE     1.08  FALSE 
##  6  14593 2005-01-10 -0.00419  -0.0084   31079383 FALSE     1.07  FALSE 
##  7  14593 2005-01-11 -0.0638   -0.0575   46753220 FALSE     1.00  FALSE 
##  8  14593 2005-01-12  0.0139    0.00973  36727541 FALSE     1.02  FALSE 
##  9  14593 2005-01-13  0.0663    0.0732   56719585 FALSE     1.08  FALSE 
## 10  14593 2005-01-14  0.00573  -0.000509 27466847 FALSE     1.09  FALSE 
## # i 4,771 more rows
…
13.2.2.2

apple_reg_data |>  
  arrange(date) |>
  mutate(cumret = cumprod(1 + ret),
         switch = coalesce(is_event != lead(is_event), FALSE))

## # A tibble: 4,781 x 8
##    permno date             ret   ret_mkt      vol is_event cumret switch
##     <int> <date>         <dbl>     <dbl>    <dbl> <lgl>     <dbl> <lgl> 
##  1  14593 2005-01-03 -0.0172   -0.00720  12442426 FALSE     0.983 FALSE 
##  2  14593 2005-01-04  0.0103    0.0231   19650028 FALSE     0.993 FALSE 
##  3  14593 2005-01-05  0.00876   0.0149   12196008 FALSE     1.00  FALSE 
##  4  14593 2005-01-06  0.000775 -0.00271  12610986 FALSE     1.00  FALSE 
##  5  14593 2005-01-07  0.0728    0.0750   39944563 FALSE     1.08  FALSE 
##  6  14593 2005-01-10 -0.00419  -0.0084   31079383 FALSE     1.07  FALSE 
##  7  14593 2005-01-11 -0.0638   -0.0575   46753220 FALSE     1.00  FALSE 
##  8  14593 2005-01-12  0.0139    0.00973  36727541 FALSE     1.02  FALSE 
##  9  14593 2005-01-13  0.0663    0.0732   56719585 FALSE     1.08  FALSE 
## 10  14593 2005-01-14  0.00573  -0.000509 27466847 FALSE     1.09  FALSE 
## # i 4,771 more rows
…
can_rets <-
  idx_daily |> 
  filter(gvkeyx == "000193") |> 
  window_order(datadate) |>
  mutate(ret_can = if_else(lag(prccd) > 0, prccd/lag(prccd) - 1, NA)) |> 
  filter(datadate >= "2000-01-01", datadate <= "2002-12-31") |>
  rename(date = datadate) |>
  select(date, ret_can) |>
  collect()

can_rets

## # A tibble: 742 x 2
##    date        ret_can
##    <date>        <dbl>
##  1 2000-01-04 -0.0251 
##  2 2000-01-06 -0.0108 
##  3 2000-01-07  0.0388 
##  4 2000-01-10  0.0205 
##  5 2000-01-11 -0.0186 
##  6 2000-01-12 -0.00974
##  7 2000-01-13  0.00694
##  8 2000-01-17  0.00729
##  9 2000-01-18  0.0130 
## 10 2000-01-19  0.00529
## # i 732 more rows

reg_data <-
  dsi_local |>
  inner_join(can_rets, by = "date") |>
  filter(date < "2001-12-28") |>
  top_n(100, wt = date) 

reg_data

## # A tibble: 100 x 4
##    date         vwretd    ewretd  ret_can
##    <date>        <dbl>     <dbl>    <dbl>
##  1 2001-07-25  0.0137   0.00276   0.00492
##  2 2001-07-26  0.0115   0.00767  -0.00276
##  3 2001-07-27  0.00330  0.00352   0.0105 
##  4 2001-07-30 -0.00118 -0.00114  -0.00526
##  5 2001-07-31  0.00489  0.00322   0.00633
##  6 2001-08-01  0.00504  0.00645   0.00692
##  7 2001-08-02  0.00322  0.00253   0.00191
##  8 2001-08-03 -0.00463  0.000534 -0.00150
##  9 2001-08-07  0.00225 -0.000388  0.00362
## 10 2001-08-08 -0.0167  -0.0100   -0.0151 
## # i 90 more rows
…
dsi_merged <-
  dsi_local |>
  inner_join(can_rets, by = "date") |>
  mutate(abret_vw = vwretd - predict(fm_vw, newdata = pick(everything())),
         abret_ew = ewretd - predict(fm_ew, newdata = pick(everything()))) |>
  select(-ret_can)

dsi_merged

## # A tibble: 726 x 5
##    date         vwretd   ewretd  abret_vw  abret_ew
##    <date>        <dbl>    <dbl>     <dbl>     <dbl>
##  1 2000-01-04 -0.0397  -0.0175  -0.0128    0.00353 
##  2 2000-01-06 -0.00739  0.00450  0.00448   0.0134  
##  3 2000-01-07  0.0325   0.0170  -0.00733  -0.0161  
##  4 2000-01-10  0.0186   0.0153  -0.00215  -0.00226 
##  5 2000-01-11 -0.0169  -0.00608  0.00310   0.00941 
##  6 2000-01-12 -0.00692 -0.00250  0.00389   0.00550 
##  7 2000-01-13  0.0163   0.0131   0.00969   0.00697 
##  8 2000-01-18 -0.00086  0.0120  -0.0138    0.000803
##  9 2000-01-19  0.00463  0.00812 -0.000230  0.00342 
## 10 2000-01-20 -0.00280  0.00347 -0.00793  -0.00145 
## # i 716 more rows
…
